…
## Locus evaluation

How many loci and how many alleles?

``` r
# alleles
genos_no_dups %>%
  filter(!is.na(allele)) %>%
  dplyr::select(locus, allele) %>%
  unique() %>%
  arrange(locus)
```

    ## # A tibble: 458 × 2
    ##    locus                allele
    ##    <chr>                <chr> 
    ##  1 scaffold_0_4543438   GAA   
    ##  2 scaffold_0_4543438   GGA   
    ##  3 scaffold_0_4543438   GGG   
    ##  4 scaffold_0_4543438   AGA   
    ##  5 scaffold_102_694013  T     
    ##  6 scaffold_102_694013  C     
    ##  7 scaffold_1050_36334  C     
    ##  8 scaffold_1050_36334  T     
    ##  9 scaffold_1053_177405 A     
    ## 10 scaffold_1053_177405 G     
    ## # ℹ 448 more rows

``` r
# loci
genos_no_dups %>%
  filter(!is.na(allele)) %>%
  dplyr::select(locus, allele) %>%
  unique() %>%
  group_by(locus) %>%
  tally() %>%
  arrange(desc(n))
```

    ## # A tibble: 182 × 2
    ##    locus                    n
    ##    <chr>                <int>
    ##  1 scaffold_1226_115783     8
    ##  2 scaffold_1589_18141      7
    ##  3 scaffold_1164_119437     6
    ##  4 scaffold_925_195188      6
    ##  5 scaffold_316_437138      5
    ##  6 scaffold_33_2811656      5
    ##  7 scaffold_343_778064      5
    ##  8 scaffold_48_3128896      5
    ##  9 scaffold_51_1220763      5
    ## 10 scaffold_0_4543438       4
    ## # ℹ 172 more rows
…
    ## Joining with `by = join_by(locus)`

Drop 3 loci with \> 50% missing data.

That brings the number of loci down to 168. (11 were monomorphic)

``` r
# summary of remaining loci
genos_locs_filtered %>%
  filter(!is.na(allele)) %>%
  dplyr::select(locus, allele) %>%
  unique()
```

    ## # A tibble: 437 × 2
    ##    locus                allele           
    ##    <chr>                <chr>            
    ##  1 scaffold_0_4543438   GAA              
    ##  2 scaffold_0_4543438   GGA              
    ##  3 scaffold_102_694013  T                
    ##  4 scaffold_1050_36334  C                
    ##  5 scaffold_1050_36334  T                
    ##  6 scaffold_1053_177405 A                
    ##  7 scaffold_1078_116737 GC               
    ##  8 scaffold_1078_116737 GT               
    ##  9 scaffold_10_1333563  A                
    ## 10 scaffold_1164_119437 TATTATACTAGTATTAG
    ## # ℹ 427 more rows

``` r
genos_locs_filtered %>%
  filter(!is.na(allele)) %>%
  dplyr::select(locus, allele) %>%
  unique() %>%
  group_by(locus) %>%
  tally() %>%
  arrange(desc(n))
```

    ## # A tibble: 168 × 2
    ##    locus                    n
    ##    <chr>                <int>
    ##  1 scaffold_1226_115783     8
    ##  2 scaffold_1589_18141      7
    ##  3 scaffold_1164_119437     6
    ##  4 scaffold_925_195188      6
    ##  5 scaffold_316_437138      5
    ##  6 scaffold_33_2811656      5
    ##  7 scaffold_343_778064      5
    ##  8 scaffold_51_1220763      5
    ##  9 scaffold_0_4543438       4
    ## 10 scaffold_127_1105814     4
    ## # ℹ 158 more rows
…
#### assignment threshold

``` r
mix_assigned %>%
  filter(z_score > -3.5) %>%
  filter(PofZ > 0.9)
```

    ## # A tibble: 590 × 10
    ## # Groups:   indiv [590]
    ##    mixture_collection indiv   repunit collection  PofZ log_likelihood z_score
    ##    <chr>              <chr>   <chr>   <chr>      <dbl>          <dbl>   <dbl>
    ##  1 bycatch            08-1139 FFS     Tern       1.00           -169.  -1.68 
    ##  2 bycatch            08-1148 FFS     Tern       1.00           -160.  -0.424
    ##  3 bycatch            08-2152 FFS     Tern       0.911          -185.  -3.33 
    ##  4 bycatch            08-2174 FFS     Tern       0.936          -157.  -0.391
    ##  5 bycatch            08-2177 FFS     Tern       0.988          -164.  -1.17 
    ##  6 bycatch            09-0421 FFS     Tern       0.999          -155.  -0.618
    ##  7 bycatch            09-0422 FFS     Tern       1.00           -154.   0.263
    ##  8 bycatch            10-0212 FFS     Tern       1.00           -152.  -1.27 
    ##  9 bycatch            10-0217 FFS     Tern       0.991          -159.  -1.78 
    ## 10 bycatch            10-0226 FFS     Tern       1.00           -164.  -2.40 
    ## # ℹ 580 more rows
    ## # ℹ 3 more variables: n_non_miss_loci <int>, n_miss_loci <int>,
    ## #   missing_loci <list>
…
bycatch_gsi_outputs
```

    ## # A tibble: 855 × 24
    ##    sampleID SBNDID VerifySpecies FisheriesName             GenCollArea `BandY/N`
    ##    <chr>     <dbl> <chr>         <chr>                     <chr>       <lgl>    
    ##  1 08-1139    3099 BFAL          Hawaii Deep-set Longline  HI          FALSE    
    ##  2 08-1140    3100 BFAL          Hawaii Shallow-set Longl… HI          TRUE     
    ##  3 08-1148    3108 BFAL          Hawaii Deep-set Longline  HI          FALSE    
    ##  4 08-1844    3267 BFAL          Hawaii Deep-set Longline  HI          FALSE    
    ##  5 08-2149    3279 BFAL          Alaska Groundfish fisher… AK          FALSE    
    ##  6 08-2152    3282 BFAL          Alaska Groundfish fisher… AK          FALSE    
    ##  7 08-2169    3299 BFAL          Hawaii Deep-set Longline  HI          FALSE    
    ##  8 08-2174    3304 BFAL          Hawaii Deep-set Longline  HI          FALSE    
    ##  9 08-2176    3306 BFAL          Hawaii Deep-set Longline  HI          TRUE     
    ## 10 08-2177    3307 BFAL          Hawaii Deep-set Longline  HI          FALSE    
    ## # ℹ 845 more rows
    ## # ℹ 18 more variables: MinAgeCollection <chr>, Location <chr>,
    ## #   `Loc-Abbr` <chr>, Sex <chr>, AgeEst <chr>, CollMonth <dbl>, CollDay <dbl>,
    ## #   CollYear <dbl>, mixture_collection <chr>, repunit <chr>, collection <chr>,
    ## #   PofZ <dbl>, log_likelihood <dbl>, z_score <dbl>, n_non_miss_loci <int>,
    ## #   n_miss_loci <dbl>, note <chr>, colony <chr>
…
``` r
# confirming the number of unassigned samples post-2010
colony_assignments %>%
   filter(note != "banded" & colony == "Unassigned")
```

    ## # A tibble: 177 × 24
    ##    sampleID SBNDID VerifySpecies FisheriesName             GenCollArea `BandY/N`
    ##    <chr>     <dbl> <chr>         <chr>                     <chr>       <lgl>    
    ##  1 10-0228    3394 BFAL          Hawaii Deep-set Longline  HI          FALSE    
    ##  2 10-0495    3595 BFAL          Hawaii Shallow-set Longl… HI          FALSE    
    ##  3 11-0608    4103 BFAL          Hawaii Deep-set Longline  HI          FALSE    
    ##  4 11-0614    4109 BFAL          Hawaii Shallow-set Longl… HI          FALSE    
    ##  5 11-0705    4187 BFAL          Hawaii Deep-set Longline  HI          FALSE    
    ##  6 12-0145    4439 BFAL          Alaska Groundfish fisher… AK          FALSE    
    ##  7 12-0239    4454 BFAL          Hawaii Deep-set Longline  HI          FALSE    
    ##  8 12-0244    4459 BFAL          Hawaii Shallow-set Longl… HI          FALSE    
    ##  9 12-0261    4476 BFAL          Hawaii Deep-set Longline  HI          FALSE    
    ## 10 12-0264    4479 BFAL          Hawaii Deep-set Longline  HI          FALSE    
    ## # ℹ 167 more rows
    ## # ℹ 18 more variables: MinAgeCollection <chr>, Location <chr>,
    ## #   `Loc-Abbr` <chr>, Sex <chr>, AgeEst <chr>, CollMonth <dbl>, CollDay <dbl>,
    ## #   CollYear <dbl>, mixture_collection <chr>, repunit <chr>, collection <chr>,
    ## #   PofZ <dbl>, log_likelihood <dbl>, z_score <dbl>, n_non_miss_loci <int>,
    ## #   n_miss_loci <dbl>, note <chr>, colony <chr>
…
