…
# how many samples now?
geno_one_each %>%
  filter(!is.na(sampleID)) %>%
  group_by(sampleID) %>% 
  select(sampleID, gtseq_run, id) %>%
  unique() %>%
  tally() 
```

    ## # A tibble: 148 × 2
    ##    sampleID     n
    ##    <chr>    <int>
    ##  1 12-0155      1
    ##  2 12-0270      1
    ##  3 12-0271      1
    ##  4 12-0371      1
    ##  5 12-0372      1
    ##  6 12-0381      1
    ##  7 13-0991      1
    ##  8 13-1187      1
    ##  9 13-1198      1
    ## 10 14-0454      1
    ## # ℹ 138 more rows
…
Deal with missing data:

## Missing data in loci

How many loci and how many alleles?

``` r
# alleles
geno_one_each %>%
  filter(!is.na(allele)) %>%
  select(locus, allele) %>%
  unique()
```

    ## # A tibble: 458 × 2
    ##    locus                allele           
    ##    <chr>                <chr>            
    ##  1 scaffold_0_4543438   GGG              
    ##  2 scaffold_0_4543438   GGA              
    ##  3 scaffold_1050_36334  T                
    ##  4 scaffold_1053_177405 A                
    ##  5 scaffold_1078_116737 GC               
    ##  6 scaffold_10_1333563  G                
    ##  7 scaffold_10_1333563  A                
    ##  8 scaffold_115_2200290 C                
    ##  9 scaffold_1164_119437 TATTATACTGGTATTAG
    ## 10 scaffold_116_1932131 CG               
    ## # ℹ 448 more rows

``` r
# loci
geno_one_each %>%
  filter(!is.na(allele)) %>%
  select(locus, allele) %>%
  unique() %>%
  group_by(locus) %>%
  tally() %>%
  arrange(desc(n))
```

    ## # A tibble: 189 × 2
    ##    locus                    n
    ##    <chr>                <int>
    ##  1 scaffold_1226_115783     6
    ##  2 scaffold_1589_18141      5
    ##  3 scaffold_316_437138      5
    ##  4 scaffold_33_2811656      5
    ##  5 scaffold_48_3128896      5
    ##  6 scaffold_75_1184494      5
    ##  7 scaffold_0_4543438       4
    ##  8 scaffold_1164_119437     4
    ##  9 scaffold_127_1105814     4
    ## 10 scaffold_15_2923659      4
    ## # ℹ 179 more rows
…
